{
  "project_info": {
    "project_number": "43798172465",
    "firebase_url": "https://androidavanzadojbarreto.firebaseio.com",
    "project_id": "androidavanzadojbarreto",
    "storage_bucket": "androidavanzadojbarreto.appspot.com"
  },
  "client": [
    {
      "client_info": {
        "mobilesdk_app_id": "1:43798172465:android:4e79f87065477ec4c75610",
        "android_client_info": {
          "package_name": "edu.uoc.androidavanzado"
        }
      },
      "oauth_client": [
        {
          "client_id": "43798172465-nmikmtrp7s1nbluol5su95br64so6m2o.apps.googleusercontent.com",
          "client_type": 3
        }
      ],
      "api_key": [
        {
          "current_key": "AIzaSyDaixZVDI1ZaIiKxtAftXeCX_0n-HwSsPo"
        }
      ],
      "services": {
        "appinvite_service": {
          "other_platform_oauth_client": [
            {
              "client_id": "43798172465-nmikmtrp7s1nbluol5su95br64so6m2o.apps.googleusercontent.com",
              "client_type": 3
            }
          ]
        }
      }
    }
  ],
  "configuration_version": "1"
}